2-examples/1-sequential_circuits/2-up_down_counter/waveform.vcd
$date
     Aug 05, 2025       12:55:40
$end

$version
 SystemC 2.3.1-Accellera --- Aug  5 2025 08:42:50
$end

$timescale
     1 ns
$end

$scope module SystemC $end
$var wire    1  aaaaa  CLK       $end
$var wire    1  aaaab  RESET       $end
$var wire    1  aaaac  EN       $end
$var wire    1  aaaad  UPDOWN       $end
$var wire    4  aaaae  Q [3:0]  $end
$upscope $end
$enddefinitions  $end

$comment
All initial values are dumped below at time 0 sec = 0 timescale units.
$end

$dumpvars
1aaaaa
1aaaab
0aaaac
1aaaad
b0 aaaae
$end

#3
0aaaaa

#5
1aaaaa

#8
0aaaaa

#10
1aaaaa
0aaaab
1aaaac
b1 aaaae

#13
0aaaaa

#15
1aaaaa
b10 aaaae

#18
0aaaaa

#20
1aaaaa
b11 aaaae

#23
0aaaaa

#25
1aaaaa
b100 aaaae

#28
0aaaaa

#30
1aaaaa
b101 aaaae

#33
0aaaaa

#35
1aaaaa
b110 aaaae

#38
0aaaaa

#40
1aaaaa
0aaaad
b101 aaaae

#43
0aaaaa

#45
1aaaaa
b100 aaaae

#48
0aaaaa

#50
1aaaaa
b11 aaaae

#53
0aaaaa

#55
1aaaaa
b10 aaaae

#58
0aaaaa

#60
1aaaaa
b1 aaaae

#63
0aaaaa

#65
1aaaaa
b0 aaaae

#68
0aaaaa

#70
1aaaaa
0aaaac

#73
0aaaaa

#75
1aaaaa

#78
0aaaaa

#80
1aaaaa
1aaaab

