2-examples/1-sequential_circuits/4-fsm/waveform.vcd
$date
     Aug 05, 2025       15:31:13
$end

$version
 SystemC 2.3.1-Accellera --- Aug  5 2025 08:42:50
$end

$timescale
     1 ns
$end

$scope module SystemC $end
$var wire    1  aaaaa  CLK       $end
$var wire    1  aaaab  RESET       $end
$var wire    1  aaaac  DIN       $end
$var wire    1  aaaad  DETECTED       $end
$upscope $end
$enddefinitions  $end

$comment
All initial values are dumped below at time 0 sec = 0 timescale units.
$end

$dumpvars
1aaaaa
1aaaab
0aaaac
0aaaad
$end

#3
0aaaaa

#5
1aaaaa

#8
0aaaaa

#10
1aaaaa
0aaaab

#13
0aaaaa

#15
1aaaaa
1aaaac

#18
0aaaaa

#20
1aaaaa
0aaaac

#23
0aaaaa

#25
1aaaaa
1aaaac

#28
0aaaaa

#30
1aaaaa
1aaaad

#33
0aaaaa

#35
1aaaaa
0aaaac
0aaaad

#38
0aaaaa

#40
1aaaaa
1aaaac

#43
0aaaaa

#45
1aaaaa
1aaaad

#48
0aaaaa

#50
1aaaaa
0aaaad

#53
0aaaaa

#55
1aaaaa

#58
0aaaaa

#60
1aaaaa
0aaaac

#63
0aaaaa

#65
1aaaaa
1aaaac

#68
0aaaaa

#70
1aaaaa
1aaaad

#73
0aaaaa

#75
1aaaaa
0aaaad

#78
0aaaaa

#80
1aaaaa
0aaaac

